lab3/src/fir.vcd
$date
   Sun Mar 23 23:21:36 2025
$end
$version
  2022.1
$end
$timescale
  1ps
$end
$scope module fir_tb $end
$var wire 1 ! awready $end
$var wire 1 " wready $end
$var reg 1 # awvalid $end
$var reg 12 $ awaddr [11:0] $end
$var reg 1 % wvalid $end
$var reg 32 & wdata [31:0] $end
$var wire 1 ' arready $end
$var reg 1 ( rready $end
$var reg 1 ) arvalid $end
$var reg 12 * araddr [11:0] $end
$var wire 1 + rvalid $end
$var wire 32 , rdata [31:0] $end
$var reg 1 - ss_tvalid $end
$var reg 32 . ss_tdata [31:0] $end
$var reg 1 / ss_tlast $end
$var wire 1 0 ss_tready $end
$var reg 1 1 sm_tready $end
$var wire 1 2 sm_tvalid $end
$var wire 32 3 sm_tdata [31:0] $end
$var wire 1 4 sm_tlast $end
$var reg 1 5 axis_clk $end
$var reg 1 6 axis_rst_n $end
$var wire 4 7 tap_WE [3:0] $end
$var wire 1 8 tap_EN $end
$var wire 32 9 tap_Di [31:0] $end
$var wire 12 : tap_A [11:0] $end
$var wire 32 ; tap_Do [31:0] $end
$var wire 4 < data_WE [3:0] $end
$var wire 1 = data_EN $end
$var wire 32 > data_Di [31:0] $end
$var wire 12 ? data_A [11:0] $end
$var wire 32 @ data_Do [31:0] $end
$var reg 32 A data_length [31:0] $end
$var integer 32 B Din [31:0] $end
$var integer 32 C golden [31:0] $end
$var integer 32 D input_data [31:0] $end
$var integer 32 E golden_data [31:0] $end
$var integer 32 F m [31:0] $end
$var integer 32 G i [31:0] $end
$var integer 32 H k [31:0] $end
$var reg 1 I error $end
$var reg 1 J status_error $end
$var integer 32 K timeout [31:0] $end
$var reg 1 L error_coef $end
$scope module fir_DUT $end
$var wire 1 ! awready $end
$var wire 1 " wready $end
$var wire 1 M awvalid $end
$var wire 12 N awaddr [11:0] $end
$var wire 1 O wvalid $end
$var wire 32 P wdata [31:0] $end
$var wire 1 ' arready $end
$var wire 1 Q rready $end
$var wire 1 R arvalid $end
$var wire 12 S araddr [11:0] $end
$var wire 1 + rvalid $end
$var wire 32 , rdata [31:0] $end
$var wire 1 T ss_tvalid $end
$var wire 32 U ss_tdata [31:0] $end
$var wire 1 V ss_tlast $end
$var wire 1 0 ss_tready $end
$var wire 1 W sm_tready $end
$var wire 1 2 sm_tvalid $end
$var wire 32 3 sm_tdata [31:0] $end
$var wire 1 4 sm_tlast $end
$var wire 4 7 tap_WE [3:0] $end
$var wire 1 8 tap_EN $end
$var wire 32 9 tap_Di [31:0] $end
$var wire 12 : tap_A [11:0] $end
$var wire 32 ; tap_Do [31:0] $end
$var wire 4 < data_WE [3:0] $end
$var wire 1 = data_EN $end
$var wire 32 > data_Di [31:0] $end
$var wire 12 ? data_A [11:0] $end
$var wire 32 @ data_Do [31:0] $end
$var wire 1 X axis_clk $end
$var wire 1 Y axis_rst_n $end
$var reg 3 Z ap_ports [2:0] $end
$var reg 32 [ length [31:0] $end
$var reg 2 \ cs [1:0] $end
$var reg 2 ] ns [1:0] $end
$var reg 1 ^ axil_awready $end
$var reg 1 _ axil_read_valid $end
$var wire 1 ` ap_start $end
$var wire 1 a ap_idle $end
$var wire 1 b ap_done $end
$var reg 32 c tap_A_w [31:0] $end
$var reg 12 d wr_ptr_r [11:0] $end
$var reg 12 e rd_ptr_r [11:0] $end
$var wire 32 f mult_result [31:0] $end
$var wire 32 g mult_input [31:0] $end
$var reg 32 h FIR_temp [31:0] $end
$var reg 32 i out_buffer1 [31:0] $end
$var reg 32 j out_buffer2 [31:0] $end
$var reg 32 k rdata_r [31:0] $end
$var reg 4 l reset_cnt [3:0] $end
$var reg 32 m SS_data [31:0] $end
$var reg 10 n fir_data_cnt [9:0] $end
$var reg 7 o fir_cycle_cnt [6:0] $end
$var wire 1 p sm_empty $end
$var reg 1 q data_WE_w $end
$var reg 1 r data_A_w $end
$var integer 32 s i [31:0] $end
$var reg 1 t reset_done $end
$upscope $end
$scope module tap_RAM $end
$var wire 1 u CLK $end
$var wire 4 7 WE [3:0] $end
$var wire 1 8 EN $end
$var wire 32 9 Di [31:0] $end
$var wire 32 ; Do [31:0] $end
$var wire 12 : A [11:0] $end
$var reg 12 v r_A [11:0] $end
$var reg 32 w Temp_D [31:0] $end
$upscope $end
$scope module data_RAM $end
$var wire 1 x CLK $end
$var wire 4 < WE [3:0] $end
$var wire 1 = EN $end
$var wire 32 > Di [31:0] $end
$var wire 32 @ Do [31:0] $end
$var wire 12 ? A [11:0] $end
$var reg 12 y r_A [11:0] $end
$var reg 32 z Temp_D [31:0] $end
$upscope $end
$scope task config_write $end
$var reg 12 { addr [11:0] $end
$var reg 32 | data [31:0] $end
$upscope $end
$scope task config_read_check $end
$var reg 12 } addr [11:0] $end
$var reg 32 ~ exp_data [31:0] $end
$var reg 32 !! mask [31:0] $end
$upscope $end
$scope task ss $end
$var reg 32 "! in1 [31:0] $end
$upscope $end
$scope task sm $end
$var reg 32 #! in2 [31:0] $end
$var reg 32 $! pcnt [31:0] $end
$upscope $end
$upscope $end
$enddefinitions $end
#0
$dumpvars
0!
bx !!
0"
b1 "!
0#
bx #!
bx $
bx $!
0%
bx &
1'
x(
x)
bx *
0+
bx ,
1-
b1 .
0/
00
11
02
b0 3
z4
05
06
b0 7
18
bx 9
bx :
bx ;
b1111 <
1=
b0 >
b0 ?
bx @
b1001011000 A
b11111111111111111011000111100000 B
b11111111111111111011000111100001 C
b1 D
b1 E
b1001011000 F
b0 G
bx H
0I
0J
b11110100001001000000 K
0L
0M
bx N
0O
bx P
xQ
xR
bx S
1T
b1 U
0V
1W
0X
0Y
b100 Z
b0 [
b0 \
b0 ]
0^
0_
0`
1a
0b
bx c
b0 d
b0 e
bx f
bx g
b0 h
bx i
bx j
b0 k
b0 l
b0 m
b0 n
b0 o
0p
xq
xr
bx s
0t
0u
bx v
bx w
0x
bx y
bx z
b10000 {
b1001011000 |
bx }
bx ~
$end
#6000
1#
b10000 $
1%
b1001011000 &
15
b0 7
b1001011000 9
b0 @
b11110100001000111111 K
1M
b10000 N
1O
b1001011000 P
1X
b100 Z
b0 [
b0 \
0^
0_
bx c
b0 d
b0 e
bx f
b0 g
b0 h
b0 k
b0 l
b0 m
b0 n
b0 o
0t
1u
bx v
1x
b0 y
#12000
05
0X
0u
0x
#18000
1!
1"
15
16
b0 7
b111111110000 :
b100 ?
b11110100001000111110 K
1X
1Y
b100 Z
b0 \
1^
0_
b11111111111111111111111111110000 c
b1 l
b0 o
1u
bx v
1x
b0 y
#24000
05
0X
0u
0x
#30000
0!
0"
0#
0%
15
b0 7
bx :
bx ;
b1000 ?
b0 @
b0 H
b11110100001000111101 K
0M
0O
1X
b100 Z
b1001011000 [
b0 \
0^
0_
bx c
b10 l
b0 o
0p
1u
b111111110000 v
1x
b100 y
b100000 {
b0 |
#36000
05
0X
0u
0x
#42000
1#
b100000 $
1%
b0 &
15
b0 7
b0 9
bx ;
b1100 ?
b0 @
b11110100001000111100 K
1M
b100000 N
1O
b0 P
1X
b100 Z
b0 \
0^
0_
bx c
b11 l
b0 o
1u
bx v
1x
b1000 y
#48000
05
0X
0u
0x
#54000
1!
1"
15
b1111 7
b0 :
b10000 ?
b0 @
b11110100001000111011 K
1X
b100 Z
b0 \
1^
0_
b0 c
b100 l
b0 o
1u
bx v
1x
b1100 y
#60000
05
0X
0u
0x
#66000
0!
0"
0#
0%
b0 ,
15
b0 7
bx :
b0 ;
b10100 ?
b0 @
b1 H
b11110100001000111010 K
0M
0O
1X
b100 Z
b0 \
0^
0_
bx c
b0 f
b101 l
b0 o
1u
b0 v
1x
b10000 y
b100100 {
b11111111111111111111111111110110 |
#72000
05
0X
0u
0x
#78000
1#
b100100 $
1%
b11111111111111111111111111110110 &
bx ,
15
b0 7
b11111111111111111111111111110110 9
bx ;
b11000 ?
b0 @
b11110100001000111001 K
1M
b100100 N
1O
b11111111111111111111111111110110 P
1X
b100 Z
b0 \
0^
0_
bx c
bx f
b110 l
b0 o
1u
bx v
1x
b10100 y
#84000
05
0X
0u
0x
#90000
1!
1"
15
b1111 7
b100 :
b11100 ?
b0 @
b11110100001000111000 K
1X
b100 Z
b0 \
1^
0_
b100 c
b111 l
b0 o
1u
bx v
1x
b11000 y
#96000
05
0X
0u
0x
#102000
0!
0"
0#
0%
bx0xx0 ,
15
b0 7
bx :
b11111111111111111111111111110110 ;
b100000 ?
b0 @
b10 H
b11110100001000110111 K
0M
0O
1X
b100 Z
b0 \
0^
0_
bx c
b0 f
b1000 l
b0 o
1u
b100 v
1x
b11100 y
b101000 {
b11111111111111111111111111110111 |
#108000
05
0X
0u
0x
#114000
1#
b101000 $
1%
b11111111111111111111111111110111 &
bx ,
15
b0 7
b11111111111111111111111111110111 9
bx ;
b100100 ?
b0 @
b11110100001000110110 K
1M
b101000 N
1O
b11111111111111111111111111110111 P
1X
b100 Z
b0 \
0^
0_
bx c
bx f
b1001 l
b0 o
1u
bx v
1x
b100000 y
#120000
05
0X
0u
0x
#126000
1!
1"
15
b1111 7
b1000 :
b101000 ?
b0 @
b11110100001000110101 K
1X
b100 Z
b0 \
1^
0_
b1000 c
b1010 l
b0 o
1u
bx v
1x
b100100 y
#132000
05
0X
0u
0x
#138000
0!
0"
0#
0%
bx0xxx ,
15
b0 7
bx :
b11111111111111111111111111110111 ;
b101100 ?
b0 @
b11 H
b11110100001000110100 K
0M
0O
1X
b100 Z
b0 \
0^
0_
bx c
b0 f
b1011 l
b0 o
1u
b1000 v
1x
b101000 y
b101100 {
b10111 |
#144000
05
0X
0u
0x
#150000
1#
b101100 $
1%
b10111 &
bx ,
15
b0 7
b10111 9
bx ;
b110000 ?
bx @
b11110100001000110011 K
1M
b101100 N
1O
b10111 P
1X
b100 Z
b0 \
0^
0_
bx c
bx f
bx g
b1100 l
b0 o
1t
1u
bx v
1x
b101100 y
#156000
05
0X
0u
0x
#162000
1!
1"
15
b1111 7
b1100 :
b0 ?
bx @
b11110100001000110010 K
1X
b100 Z
b0 \
1^
0_
b1100 c
b0 l
b0 o
1u
bx v
1x
b110000 y
#168000
05
0X
0u
0x
#174000
0!
0"
0#
0%
b0x0xxx ,
15
b0 7
bx :
b10111 ;
b0 @
b100 H
b11110100001000110001 K
0M
0O
1X
b100 Z
b0 \
0^
0_
bx c
b0 f
b0 g
b0 l
b0 o
1u
b1100 v
1x
b0 y
b110000 {
b111000 |
#180000
05
0X
0u
0x
#186000
1#
b110000 $
1%
b111000 &
bx ,
15
b0 7
b111000 9
bx ;
b11110100001000110000 K
1M
b110000 N
1O
b111000 P
1X
b100 Z
b0 \
0^
0_
bx c
bx f
b0 l
b0 o
1u
bx v
1x
b0 y
#192000
05
0X
0u
0x
#198000
1!
1"
15
b1111 7
b10000 :
b11110100001000101111 K
1X
b100 Z
b0 \
1^
0_
b10000 c
b0 l
b0 o
1u
bx v
1x
b0 y
#204000
05
0X
0u
0x
#210000
0!
0"
0#
0%
b0xxx000 ,
15
b0 7
bx :
b111000 ;
b101 H
b11110100001000101110 K
0M
0O
1X
b100 Z
b0 \
0^
0_
bx c
b0 f
b0 l
b0 o
1u
b10000 v
1x
b0 y
b110100 {
b111111 |
#216000
05
0X
0u
0x
#222000
1#
b110100 $
1%
b111111 &
bx ,
15
b0 7
b111111 9
bx ;
b11110100001000101101 K
1M
b110100 N
1O
b111111 P
1X
b100 Z
b0 \
0^
0_
bx c
bx f
b0 l
b0 o
1u
bx v
1x
b0 y
#228000
05
0X
0u
0x
#234000
1!
1"
15
b1111 7
b10100 :
b11110100001000101100 K
1X
b100 Z
b0 \
1^
0_
b10100 c
b0 l
b0 o
1u
bx v
1x
b0 y
#240000
05
0X
0u
0x
#246000
0!
0"
0#
0%
b0xxxxxx ,
15
b0 7
bx :
b111111 ;
b110 H
b11110100001000101011 K
0M
0O
1X
b100 Z
b0 \
0^
0_
bx c
b0 f
b0 l
b0 o
1u
b10100 v
1x
b0 y
b111000 {
b111000 |
#252000
05
0X
0u
0x
#258000
1#
b111000 $
1%
b111000 &
bx ,
15
b0 7
b111000 9
bx ;
b11110100001000101010 K
1M
b111000 N
1O
b111000 P
1X
b100 Z
b0 \
0^
0_
bx c
bx f
b0 l
b0 o
1u
bx v
1x
b0 y
#264000
05
0X
0u
0x
#270000
1!
1"
15
b1111 7
b11000 :
b11110100001000101001 K
1X
b100 Z
b0 \
1^
0_
b11000 c
b0 l
b0 o
1u
bx v
1x
b0 y
#276000
05
0X
0u
0x
#282000
0!
0"
0#
0%
b0xxx000 ,
15
b0 7
bx :
b111000 ;
b111 H
b11110100001000101000 K
0M
0O
1X
b100 Z
b0 \
0^
0_
bx c
b0 f
b0 l
b0 o
1u
b11000 v
1x
b0 y
b111100 {
b10111 |
#288000
05
0X
0u
0x
#294000
1#
b111100 $
1%
b10111 &
bx ,
15
b0 7
b10111 9
bx ;
b11110100001000100111 K
1M
b111100 N
1O
b10111 P
1X
b100 Z
b0 \
0^
0_
bx c
bx f
b0 l
b0 o
1u
bx v
1x
b0 y
#300000
05
0X
0u
0x
#306000
1!
1"
15
b1111 7
b11100 :
b11110100001000100110 K
1X
b100 Z
b0 \
1^
0_
b11100 c
b0 l
b0 o
1u
bx v
1x
b0 y
#312000
05
0X
0u
0x
#318000
0!
0"
0#
0%
b0x0xxx ,
15
b0 7
bx :
b10111 ;
b1000 H
b11110100001000100101 K
0M
0O
1X
b100 Z
b0 \
0^
0_
bx c
b0 f
b0 l
b0 o
1u
b11100 v
1x
b0 y
b1000000 {
b11111111111111111111111111110111 |
#324000
05
0X
0u
0x
#330000
1#
b1000000 $
1%
b11111111111111111111111111110111 &
bx ,
15
b0 7
b11111111111111111111111111110111 9
bx ;
b11110100001000100100 K
1M
b1000000 N
1O
b11111111111111111111111111110111 P
1X
b100 Z
b0 \
0^
0_
bx c
bx f
b0 l
b0 o
1u
bx v
1x
b0 y
#336000
05
0X
0u
0x
#342000
1!
1"
15
b1111 7
b100000 :
b11110100001000100011 K
1X
b100 Z
b0 \
1^
0_
b100000 c
b0 l
b0 o
1u
bx v
1x
b0 y
#348000
05
0X
0u
0x
#354000
0!
0"
0#
0%
bx0xxx ,
15
b0 7
bx :
b11111111111111111111111111110111 ;
b1001 H
b11110100001000100010 K
0M
0O
1X
b100 Z
b0 \
0^
0_
bx c
b0 f
b0 l
b0 o
1u
b100000 v
1x
b0 y
b1000100 {
b11111111111111111111111111110110 |
#360000
05
0X
0u
0x
#366000
1#
b1000100 $
1%
b11111111111111111111111111110110 &
bx ,
15
b0 7
b11111111111111111111111111110110 9
bx ;
b11110100001000100001 K
1M
b1000100 N
1O
b11111111111111111111111111110110 P
1X
b100 Z
b0 \
0^
0_
bx c
bx f
b0 l
b0 o
1u
bx v
1x
b0 y
#372000
05
0X
0u
0x
#378000
1!
1"
15
b1111 7
b100100 :
b11110100001000100000 K
1X
b100 Z
b0 \
1^
0_
b100100 c
b0 l
b0 o
1u
bx v
1x
b0 y
#384000
05
0X
0u
0x
#390000
0!
0"
0#
0%
bx0xx0 ,
15
b0 7
bx :
b11111111111111111111111111110110 ;
b1010 H
b11110100001000011111 K
0M
0O
1X
b100 Z
b0 \
0^
0_
bx c
b0 f
b0 l
b0 o
1u
b100100 v
1x
b0 y
b1001000 {
b0 |
#396000
05
0X
0u
0x
#402000
1#
b1001000 $
1%
b0 &
bx ,
15
b0 7
b0 9
bx ;
b11110100001000011110 K
1M
b1001000 N
1O
b0 P
1X
b100 Z
b0 \
0^
0_
bx c
bx f
b0 l
b0 o
1u
bx v
1x
b0 y
#408000
05
0X
0u
0x
#414000
1!
1"
15
b1111 7
b101000 :
b11110100001000011101 K
1X
b100 Z
b0 \
1^
0_
b101000 c
b0 l
b0 o
1u
bx v
1x
b0 y
#420000
05
0X
0u
0x
#426000
0!
b11111111111111111111111111111111 !!
0"
0#
0%
0)
b0 ,
15
b0 7
bx :
b0 ;
b0 H
b11110100001000011100 K
0M
0O
0R
1X
b100 Z
b0 \
0^
0_
bx c
b0 f
b0 l
b0 o
1u
b101000 v
1x
b0 y
b100000 }
b0 ~
#432000
05
0X
0u
0x
#438000
1(
1)
b100000 *
bx ,
15
b0 :
bx ;
b11110100001000011011 K
1Q
1R
b100000 S
1X
b100 Z
b0 \
0^
0_
b0 c
bx f
b0 l
b0 o
1u
bx v
1x
b0 y
#444000
05
0X
0u
0x
#450000
0'
1+
b0 ,
15
b0 ;
b11110100001000011010 K
1X
b100 Z
b0 \
0^
1_
b0 f
b0 l
b0 o
1u
b0 v
1x
b0 y
#456000
05
0X
0u
0x
#462000
b11111111111111111111111111111111 !!
1'
0)
0+
15
b1 H
b11110100001000011001 K
0R
1X
b100 Z
b0 \
0^
0_
b0 l
b0 o
1u
b0 v
1x
b0 y
b100100 }
b11111111111111111111111111110110 ~
#468000
05
0X
0u
0x
#474000
1(
1)
b100100 *
b0 ,
15
b100 :
b11110100001000011000 K
1R
b100100 S
1X
b100 Z
b0 \
0^
0_
b100 c
b0 l
b0 o
1u
b0 v
1x
b0 y
#480000
05
0X
0u
0x
#486000
0'
1+
b11111111111111111111111111110110 ,
15
b11111111111111111111111111110110 ;
b11110100001000010111 K
1X
b100 Z
b0 \
0^
1_
b0 f
b0 l
b0 o
1u
b100 v
1x
b0 y
#492000
05
0X
0u
0x
#498000
b11111111111111111111111111111111 !!
1'
0)
0+
15
b10 H
b11110100001000010110 K
0R
1X
b100 Z
b0 \
0^
0_
b0 l
b0 o
1u
b100 v
1x
b0 y
b101000 }
b11111111111111111111111111110111 ~
#504000
05
0X
0u
0x
#510000
1(
1)
b101000 *
b11111111111111111111111111110110 ,
15
b1000 :
b11110100001000010101 K
1R
b101000 S
1X
b100 Z
b0 \
0^
0_
b1000 c
b0 l
b0 o
1u
b100 v
1x
b0 y
#516000
05
0X
0u
0x
#522000
0'
1+
b11111111111111111111111111110111 ,
15
b11111111111111111111111111110111 ;
b11110100001000010100 K
1X
b100 Z
b0 \
0^
1_
b0 f
b0 l
b0 o
1u
b1000 v
1x
b0 y
#528000
05
0X
0u
0x
#534000
b11111111111111111111111111111111 !!
1'
0)
0+
15
b11 H
b11110100001000010011 K
0R
1X
b100 Z
b0 \
0^
0_
b0 l
b0 o
1u
b1000 v
1x
b0 y
b101100 }
b10111 ~
#540000
05
0X
0u
0x
#546000
1(
1)
b101100 *
b11111111111111111111111111110111 ,
15
b1100 :
b11110100001000010010 K
1R
b101100 S
1X
b100 Z
b0 \
0^
0_
b1100 c
b0 l
b0 o
1u
b1000 v
1x
b0 y
#552000
05
0X
0u
0x
#558000
0'
1+
b10111 ,
15
b10111 ;
b11110100001000010001 K
1X
b100 Z
b0 \
0^
1_
b0 f
b0 l
b0 o
1u
b1100 v
1x
b0 y
#564000
05
0X
0u
0x
#570000
b11111111111111111111111111111111 !!
1'
0)
0+
15
b100 H
b11110100001000010000 K
0R
1X
b100 Z
b0 \
0^
0_
b0 l
b0 o
1u
b1100 v
1x
b0 y
b110000 }
b111000 ~
#576000
05
0X
0u
0x
#582000
1(
1)
b110000 *
b10111 ,
15
b10000 :
b11110100001000001111 K
1R
b110000 S
1X
b100 Z
b0 \
0^
0_
b10000 c
b0 l
b0 o
1u
b1100 v
1x
b0 y
#588000
05
0X
0u
0x
#594000
0'
1+
b111000 ,
15
b111000 ;
b11110100001000001110 K
1X
b100 Z
b0 \
0^
1_
b0 f
b0 l
b0 o
1u
b10000 v
1x
b0 y
#600000
05
0X
0u
0x
#606000
b11111111111111111111111111111111 !!
1'
0)
0+
15
b101 H
b11110100001000001101 K
0R
1X
b100 Z
b0 \
0^
0_
b0 l
b0 o
1u
b10000 v
1x
b0 y
b110100 }
b111111 ~
#612000
05
0X
0u
0x
#618000
1(
1)
b110100 *
b111000 ,
15
b10100 :
b11110100001000001100 K
1R
b110100 S
1X
b100 Z
b0 \
0^
0_
b10100 c
b0 l
b0 o
1u
b10000 v
1x
b0 y
#624000
05
0X
0u
0x
#630000
0'
1+
b111111 ,
15
b111111 ;
b11110100001000001011 K
1X
b100 Z
b0 \
0^
1_
b0 f
b0 l
b0 o
1u
b10100 v
1x
b0 y
#636000
05
0X
0u
0x
#642000
b11111111111111111111111111111111 !!
1'
0)
0+
15
b110 H
b11110100001000001010 K
0R
1X
b100 Z
b0 \
0^
0_
b0 l
b0 o
1u
b10100 v
1x
b0 y
b111000 }
b111000 ~
#648000
05
0X
0u
0x
#654000
1(
1)
b111000 *
b111111 ,
15
b11000 :
b11110100001000001001 K
1R
b111000 S
1X
b100 Z
b0 \
0^
0_
b11000 c
b0 l
b0 o
1u
b10100 v
1x
b0 y
#660000
05
0X
0u
0x
#666000
0'
1+
b111000 ,
15
b111000 ;
b11110100001000001000 K
1X
b100 Z
b0 \
0^
1_
b0 f
b0 l
b0 o
1u
b11000 v
1x
b0 y
#672000
05
0X
0u
0x
#678000
b11111111111111111111111111111111 !!
1'
0)
0+
15
b111 H
b11110100001000000111 K
0R
1X
b100 Z
b0 \
0^
0_
b0 l
b0 o
1u
b11000 v
1x
b0 y
b111100 }
b10111 ~
#684000
05
0X
0u
0x
#690000
1(
1)
b111100 *
b111000 ,
15
b11100 :
b11110100001000000110 K
1R
b111100 S
1X
b100 Z
b0 \
0^
0_
b11100 c
b0 l
b0 o
1u
b11000 v
1x
b0 y
#696000
05
0X
0u
0x
#702000
0'
1+
b10111 ,
15
b10111 ;
b11110100001000000101 K
1X
b100 Z
b0 \
0^
1_
b0 f
b0 l
b0 o
1u
b11100 v
1x
b0 y
#708000
05
0X
0u
0x
#714000
b11111111111111111111111111111111 !!
1'
0)
0+
15
b1000 H
b11110100001000000100 K
0R
1X
b100 Z
b0 \
0^
0_
b0 l
b0 o
1u
b11100 v
1x
b0 y
b1000000 }
b11111111111111111111111111110111 ~
#720000
05
0X
0u
0x
#726000
1(
1)
b1000000 *
b10111 ,
15
b100000 :
b11110100001000000011 K
1R
b1000000 S
1X
b100 Z
b0 \
0^
0_
b100000 c
b0 l
b0 o
1u
b11100 v
1x
b0 y
#732000
05
0X
0u
0x
#738000
0'
1+
b11111111111111111111111111110111 ,
15
b11111111111111111111111111110111 ;
b11110100001000000010 K
1X
b100 Z
b0 \
0^
1_
b0 f
b0 l
b0 o
1u
b100000 v
1x
b0 y
#744000
05
0X
0u
0x
#750000
b11111111111111111111111111111111 !!
1'
0)
0+
15
b1001 H
b11110100001000000001 K
0R
1X
b100 Z
b0 \
0^
0_
b0 l
b0 o
1u
b100000 v
1x
b0 y
b1000100 }
b11111111111111111111111111110110 ~
#756000
05
0X
0u
0x
#762000
1(
1)
b1000100 *
b11111111111111111111111111110111 ,
15
b100100 :
b11110100001000000000 K
1R
b1000100 S
1X
b100 Z
b0 \
0^
0_
b100100 c
b0 l
b0 o
1u
b100000 v
1x
b0 y
#768000
05
0X
0u
0x
#774000
0'
1+
b11111111111111111111111111110110 ,
15
b11111111111111111111111111110110 ;
b11110100000111111111 K
1X
b100 Z
b0 \
0^
1_
b0 f
b0 l
b0 o
1u
b100100 v
1x
b0 y
#780000
05
0X
0u
0x
#786000
b11111111111111111111111111111111 !!
1'
0)
0+
15
b1010 H
b11110100000111111110 K
0R
1X
b100 Z
b0 \
0^
0_
b0 l
b0 o
1u
b100100 v
1x
b0 y
b1001000 }
b0 ~
#792000
05
0X
0u
0x
#798000
1(
1)
b1001000 *
b11111111111111111111111111110110 ,
15
b101000 :
b11110100000111111101 K
1R
b1001000 S
1X
b100 Z
b0 \
0^
0_
b101000 c
b0 l
b0 o
1u
b100100 v
1x
b0 y
#804000
05
0X
0u
0x
#810000
0'
1+
b0 ,
15
b0 ;
b11110100000111111100 K
1X
b100 Z
b0 \
0^
1_
b0 f
b0 l
b0 o
1u
b101000 v
1x
b0 y
#816000
05
0X
0u
0x
#822000
1'
0)
0+
15
b1011 H
b11110100000111111011 K
0R
1X
b100 Z
b0 \
0^
0_
b0 l
b0 o
1u
b101000 v
1x
b0 y
#828000
05
0X
0u
0x
#834000
0#
0%
15
b11110100000111111010 K
1X
b100 Z
b0 \
0^
0_
b0 l
b0 o
1u
b101000 v
1x
b0 y
b0 {
b1 |
#840000
05
0X
0u
0x
#846000
1#
b0 $
1%
b1 &
15
b0 7
b1 9
b11110100000111111001 K
1M
b0 N
1O
b1 P
1X
b100 Z
b0 \
0^
0_
b101000 c
b0 l
b0 o
1u
b101000 v
1x
b0 y
#852000
05
0X
0u
0x
#858000
1!
1"
15
b0 7
b111111100000 :
b11110100000111111000 K
1X
b100 Z
b0 \
1^
0_
b11111111111111111111111111100000 c
b0 l
b0 o
1u
b101000 v
1x
b0 y
#864000
05
0X
0u
0x
#870000
0!
0"
bx ,
15
b0 7
b101000 :
bx ;
b11110100000111110111 K
1X
b101 Z
b0 \
b1 ]
0^
0_
1`
b101000 c
bx f
b0 l
b0 o
1u
b111111100000 v
1x
b0 y
#876000
05
0X
0u
0x
#882000
1!
1"
b0 ,
10
15
b0 7
b0 :
b0 ;
b0 <
b101000 ?
b11110100000111110110 K
1X
b1 Z
b1 \
b1 ]
1^
0_
0a
b0 c
b101000 d
b101000 e
b0 f
b0 l
b0 o
1u
b101000 v
1x
b0 y
#888000
05
0X
0u
0x
#894000
0!
0"
b10 "!
1-
b10 .
00
02
15
b0 7
b100 :
b0 ;
b0 <
b1 >
b100100 ?
b0 @
b1 G
b11110100000111110101 K
b10 U
1X
b0 Z
b1 \
b1 ]
0^
0_
0`
b100 c
b100100 e
b0 f
b1 g
b0 l
b1 m
b1 o
1u
b0 v
1x
b101000 y
#900000
05
0X
0u
0x
#906000
1!
1"
b11111111111111111111111111110110 ,
00
02
15
b0 7
b1000 :
b11111111111111111111111111110110 ;
b0 <
b100000 ?
b0 @
b11110100000111110100 K
1X
b0 Z
b1 \
1^
0_
b1000 c
b100000 e
b0 f
b0 g
b0 h
b0 l
b10 o
1u
b100 v
1x
b100100 y
#912000
05
0X
0u
0x
#918000
0!
0"
b11111111111111111111111111110111 ,
00
02
15
b0 7
b1100 :
b11111111111111111111111111110111 ;
b0 <
b11100 ?
b0 @
b11110100000111110011 K
1X
b0 Z
b1 \
0^
0_
b1100 c
b11100 e
b0 f
b0 g
b0 h
b0 l
b11 o
1u
b1000 v
1x
b100000 y
#924000
05
0X
0u
0x
#930000
1!
1"
b10111 ,
00
02
15
b0 7
b10000 :
b10111 ;
b0 <
b11000 ?
b0 @
b11110100000111110010 K
1X
b0 Z
b1 \
1^
0_
b10000 c
b11000 e
b0 f
b0 g
b0 h
b0 l
b100 o
1u
b1100 v
1x
b11100 y
#936000
05
0X
0u
0x
#942000
0!
0"
b111000 ,
00
02
15
b0 7
b10100 :
b111000 ;
b0 <
b10100 ?
b0 @
b11110100000111110001 K
1X
b0 Z
b1 \
0^
0_
b10100 c
b10100 e
b0 f
b0 g
b0 h
b0 l
b101 o
1u
b10000 v
1x
b11000 y
#948000
05
0X
0u
0x
#954000
1!
1"
b111111 ,
00
02
15
b0 7
b11000 :
b111111 ;
b0 <
b10000 ?
b0 @
b11110100000111110000 K
1X
b0 Z
b1 \
1^
0_
b11000 c
b10000 e
b0 f
b0 g
b0 h
b0 l
b110 o
1u
b10100 v
1x
b10100 y
#960000
05
0X
0u
0x
#966000
0!
0"
b111000 ,
00
02
15
b0 7
b11100 :
b111000 ;
b0 <
b1100 ?
b0 @
b11110100000111101111 K
1X
b0 Z
b1 \
0^
0_
b11100 c
b1100 e
b0 f
b0 g
b0 h
b0 l
b111 o
1u
b11000 v
1x
b10000 y
#972000
05
0X
0u
0x
#978000
1!
1"
b10111 ,
00
02
15
b0 7
b100000 :
b10111 ;
b0 <
b1000 ?
b0 @
b11110100000111101110 K
1X
b0 Z
b1 \
1^
0_
b100000 c
b1000 e
b0 f
b0 g
b0 h
b0 l
b1000 o
1u
b11100 v
1x
b1100 y
#984000
05
0X
0u
0x
#990000
0!
0"
b11111111111111111111111111110111 ,
00
02
15
b0 7
b100100 :
b11111111111111111111111111110111 ;
b0 <
b100 ?
b0 @
b11110100000111101101 K
1X
b0 Z
b1 \
0^
0_
b100100 c
b100 e
b0 f
b0 g
b0 h
b0 l
b1001 o
1u
b100000 v
1x
b1000 y
