lab3/src/fir.vcd
$date
   Sun Mar 23 19:47:35 2025
$end
$version
  2022.1
$end
$timescale
  1ps
$end
$scope module fir_tb $end
$var wire 1 ! awready $end
$var wire 1 " wready $end
$var reg 1 # awvalid $end
$var reg 12 $ awaddr [11:0] $end
$var reg 1 % wvalid $end
$var reg 32 & wdata [31:0] $end
$var wire 1 ' arready $end
$var reg 1 ( rready $end
$var reg 1 ) arvalid $end
$var reg 12 * araddr [11:0] $end
$var wire 1 + rvalid $end
$var wire 32 , rdata [31:0] $end
$var reg 1 - ss_tvalid $end
$var reg 32 . ss_tdata [31:0] $end
$var reg 1 / ss_tlast $end
$var wire 1 0 ss_tready $end
$var reg 1 1 sm_tready $end
$var wire 1 2 sm_tvalid $end
$var wire 32 3 sm_tdata [31:0] $end
$var wire 1 4 sm_tlast $end
$var reg 1 5 axis_clk $end
$var reg 1 6 axis_rst_n $end
$var wire 4 7 tap_WE [3:0] $end
$var wire 1 8 tap_EN $end
$var wire 32 9 tap_Di [31:0] $end
$var wire 12 : tap_A [11:0] $end
$var wire 32 ; tap_Do [31:0] $end
$var wire 4 < data_WE [3:0] $end
$var wire 1 = data_EN $end
$var wire 32 > data_Di [31:0] $end
$var wire 12 ? data_A [11:0] $end
$var wire 32 @ data_Do [31:0] $end
$var reg 32 A data_length [31:0] $end
$var integer 32 B Din [31:0] $end
$var integer 32 C golden [31:0] $end
$var integer 32 D input_data [31:0] $end
$var integer 32 E golden_data [31:0] $end
$var integer 32 F m [31:0] $end
$var integer 32 G i [31:0] $end
$var integer 32 H k [31:0] $end
$var reg 1 I error $end
$var reg 1 J status_error $end
$var integer 32 K timeout [31:0] $end
$var reg 1 L error_coef $end
$scope module fir_DUT $end
$var wire 1 ! awready $end
$var wire 1 " wready $end
$var wire 1 M awvalid $end
$var wire 12 N awaddr [11:0] $end
$var wire 1 O wvalid $end
$var wire 32 P wdata [31:0] $end
$var wire 1 ' arready $end
$var wire 1 Q rready $end
$var wire 1 R arvalid $end
$var wire 12 S araddr [11:0] $end
$var wire 1 + rvalid $end
$var wire 32 , rdata [31:0] $end
$var wire 1 T ss_tvalid $end
$var wire 32 U ss_tdata [31:0] $end
$var wire 1 V ss_tlast $end
$var wire 1 0 ss_tready $end
$var wire 1 W sm_tready $end
$var wire 1 2 sm_tvalid $end
$var wire 32 3 sm_tdata [31:0] $end
$var wire 1 4 sm_tlast $end
$var wire 4 7 tap_WE [3:0] $end
$var wire 1 8 tap_EN $end
$var wire 32 9 tap_Di [31:0] $end
$var wire 12 : tap_A [11:0] $end
$var wire 32 ; tap_Do [31:0] $end
$var wire 4 < data_WE [3:0] $end
$var wire 1 = data_EN $end
$var wire 32 > data_Di [31:0] $end
$var wire 12 ? data_A [11:0] $end
$var wire 32 @ data_Do [31:0] $end
$var wire 1 X axis_clk $end
$var wire 1 Y axis_rst_n $end
$var reg 3 Z ap_ports [2:0] $end
$var reg 32 [ length [31:0] $end
$var reg 2 \ cs [1:0] $end
$var reg 2 ] ns [1:0] $end
$var reg 1 ^ axil_awready $end
$var reg 1 _ axil_read_valid $end
$var wire 1 ` ap_start $end
$var wire 1 a ap_idle $end
$var wire 1 b ap_done $end
$var reg 32 c tap_A_w [31:0] $end
$var reg 12 d wr_ptr_r [11:0] $end
$var reg 12 e rd_ptr_r [11:0] $end
$var wire 32 f mult_result [31:0] $end
$var wire 32 g mult_input [31:0] $end
$var reg 32 h FIR_temp [31:0] $end
$var reg 32 i out_buffer1 [31:0] $end
$var reg 32 j out_buffer2 [31:0] $end
$var reg 32 k rdata_r [31:0] $end
$var reg 4 l reset_cnt [3:0] $end
$var reg 32 m SS_data [31:0] $end
$var reg 10 n fir_data_cnt [9:0] $end
$var reg 7 o fir_cycle_cnt [6:0] $end
$var wire 1 p sm_empty $end
$var reg 1 q data_WE_w $end
$var reg 1 r data_A_w $end
$var integer 32 s i [31:0] $end
$var reg 1 t reset_done $end
$upscope $end
$scope module tap_RAM $end
$var wire 1 u CLK $end
$var wire 4 7 WE [3:0] $end
$var wire 1 8 EN $end
$var wire 32 9 Di [31:0] $end
$var wire 32 ; Do [31:0] $end
$var wire 12 : A [11:0] $end
$var reg 12 v r_A [11:0] $end
$var reg 32 w Temp_D [31:0] $end
$upscope $end
$scope module data_RAM $end
$var wire 1 x CLK $end
$var wire 4 < WE [3:0] $end
$var wire 1 = EN $end
$var wire 32 > Di [31:0] $end
$var wire 32 @ Do [31:0] $end
$var wire 12 ? A [11:0] $end
$var reg 12 y r_A [11:0] $end
$var reg 32 z Temp_D [31:0] $end
$upscope $end
$scope task config_write $end
$var reg 12 { addr [11:0] $end
$var reg 32 | data [31:0] $end
$upscope $end
$scope task config_read_check $end
$var reg 12 } addr [11:0] $end
$var reg 32 ~ exp_data [31:0] $end
$var reg 32 !! mask [31:0] $end
$upscope $end
$scope task ss $end
$var reg 32 "! in1 [31:0] $end
$upscope $end
$scope task sm $end
$var reg 32 #! in2 [31:0] $end
$var reg 32 $! pcnt [31:0] $end
$upscope $end
$upscope $end
$enddefinitions $end
#0
$dumpvars
0!
bx !!
0"
b1 "!
0#
bx #!
bx $
bx $!
0%
bx &
1'
x(
x)
bx *
0+
bx ,
1-
b1 .
0/
00
11
02
b0 3
z4
05
06
b0 7
18
bx 9
bx :
bx ;
b1111 <
1=
b0 >
b0 ?
bx @
b1001011000 A
b11111111111111111011000111100000 B
b11111111111111111011000111100001 C
b1 D
b1 E
b1001011000 F
b0 G
bx H
0I
0J
b11110100001001000000 K
0L
0M
bx N
0O
bx P
xQ
xR
bx S
1T
b1 U
0V
1W
0X
0Y
b100 Z
b0 [
b0 \
b0 ]
0^
0_
0`
1a
0b
bx c
b0 d
b0 e
bx f
bx g
b0 h
bx i
bx j
b0 k
b0 l
b0 m
b0 n
b0 o
0p
xq
xr
bx s
0t
0u
bx v
bx w
0x
bx y
bx z
b10000 {
b1001011000 |
bx }
bx ~
$end
#5000
1#
b10000 $
1%
b1001011000 &
15
b0 7
b1001011000 9
b0 @
b11110100001000111111 K
1M
b10000 N
1O
b1001011000 P
1X
b100 Z
b0 [
b0 \
0^
0_
bx c
b0 d
b0 e
bx f
b0 g
b0 h
b0 k
b0 l
b0 m
b0 n
b0 o
0t
1u
bx v
1x
b0 y
#10000
05
0X
0u
0x
#15000
1!
1"
15
16
b0 7
b111111110000 :
b100 ?
b11110100001000111110 K
1X
1Y
b100 Z
b0 \
1^
0_
b11111111111111111111111111110000 c
b1 l
b0 o
1u
bx v
1x
b0 y
#20000
05
0X
0u
0x
#25000
0!
0"
0#
0%
15
b0 7
bx :
bx ;
b1000 ?
b0 @
b0 H
b11110100001000111101 K
0M
0O
1X
b100 Z
b1001011000 [
b0 \
0^
0_
bx c
b10 l
b0 o
0p
1u
b111111110000 v
1x
b100 y
b100000 {
b0 |
#30000
05
0X
0u
0x
#35000
1#
b100000 $
1%
b0 &
15
b0 7
b0 9
bx ;
b1100 ?
b0 @
b11110100001000111100 K
1M
b100000 N
1O
b0 P
1X
b100 Z
b0 \
0^
0_
bx c
b11 l
b0 o
1u
bx v
1x
b1000 y
#40000
05
0X
0u
0x
#45000
1!
1"
15
b1111 7
b0 :
b10000 ?
b0 @
b11110100001000111011 K
1X
b100 Z
b0 \
1^
0_
b0 c
b100 l
b0 o
1u
bx v
1x
b1100 y
#50000
05
0X
0u
0x
#55000
0!
0"
0#
0%
b0 ,
15
b0 7
bx :
b0 ;
b10100 ?
b0 @
b1 H
b11110100001000111010 K
0M
0O
1X
b100 Z
b0 \
0^
0_
bx c
b0 f
b101 l
b0 o
1u
b0 v
1x
b10000 y
b100100 {
b11111111111111111111111111110110 |
#60000
05
0X
0u
0x
#65000
1#
b100100 $
1%
b11111111111111111111111111110110 &
bx ,
15
b0 7
b11111111111111111111111111110110 9
bx ;
b11000 ?
b0 @
b11110100001000111001 K
1M
b100100 N
1O
b11111111111111111111111111110110 P
1X
b100 Z
b0 \
0^
0_
bx c
bx f
b110 l
b0 o
1u
bx v
1x
b10100 y
#70000
05
0X
0u
0x
#75000
1!
1"
15
b1111 7
b100 :
b11100 ?
b0 @
b11110100001000111000 K
1X
b100 Z
b0 \
1^
0_
b100 c
b111 l
b0 o
1u
bx v
1x
b11000 y
#80000
05
0X
0u
0x
#85000
0!
0"
0#
0%
bx0xx0 ,
15
b0 7
bx :
b11111111111111111111111111110110 ;
b100000 ?
b0 @
b10 H
b11110100001000110111 K
0M
0O
1X
b100 Z
b0 \
0^
0_
bx c
b0 f
b1000 l
b0 o
1u
b100 v
1x
b11100 y
b101000 {
b11111111111111111111111111110111 |
#90000
05
0X
0u
0x
#95000
1#
b101000 $
1%
b11111111111111111111111111110111 &
bx ,
15
b0 7
b11111111111111111111111111110111 9
bx ;
b100100 ?
b0 @
b11110100001000110110 K
1M
b101000 N
1O
b11111111111111111111111111110111 P
1X
b100 Z
b0 \
0^
0_
bx c
bx f
b1001 l
b0 o
1u
bx v
1x
b100000 y
#100000
05
0X
0u
0x
#105000
1!
1"
15
b1111 7
b1000 :
b101000 ?
b0 @
b11110100001000110101 K
1X
b100 Z
b0 \
1^
0_
b1000 c
b1010 l
b0 o
1u
bx v
1x
b100100 y
#110000
05
0X
0u
0x
#115000
0!
0"
0#
0%
bx0xxx ,
15
b0 7
bx :
b11111111111111111111111111110111 ;
b101100 ?
b0 @
b11 H
b11110100001000110100 K
0M
0O
1X
b100 Z
b0 \
0^
0_
bx c
b0 f
b1011 l
b0 o
1u
b1000 v
1x
b101000 y
b101100 {
b10111 |
#120000
05
0X
0u
0x
#125000
1#
b101100 $
1%
b10111 &
bx ,
15
b0 7
b10111 9
bx ;
b110000 ?
bx @
b11110100001000110011 K
1M
b101100 N
1O
b10111 P
1X
b100 Z
b0 \
0^
0_
bx c
bx f
bx g
b1100 l
b0 o
1t
1u
bx v
1x
b101100 y
#130000
05
0X
0u
0x
#135000
1!
1"
15
b1111 7
b1100 :
b0 ?
bx @
b11110100001000110010 K
1X
b100 Z
b0 \
1^
0_
b1100 c
b0 l
b0 o
1u
bx v
1x
b110000 y
#140000
05
0X
0u
0x
#145000
0!
0"
0#
0%
b0x0xxx ,
15
b0 7
bx :
b10111 ;
b0 @
b100 H
b11110100001000110001 K
0M
0O
1X
b100 Z
b0 \
0^
0_
bx c
b0 f
b0 g
b0 l
b0 o
1u
b1100 v
1x
b0 y
b110000 {
b111000 |
#150000
05
0X
0u
0x
#155000
1#
b110000 $
1%
b111000 &
bx ,
15
b0 7
b111000 9
bx ;
b11110100001000110000 K
1M
b110000 N
1O
b111000 P
1X
b100 Z
b0 \
0^
0_
bx c
bx f
b0 l
b0 o
1u
bx v
1x
b0 y
#160000
05
0X
0u
0x
#165000
1!
1"
15
b1111 7
b10000 :
b11110100001000101111 K
1X
b100 Z
b0 \
1^
0_
b10000 c
b0 l
b0 o
1u
bx v
1x
b0 y
#170000
05
0X
0u
0x
#175000
0!
0"
0#
0%
b0xxx000 ,
15
b0 7
bx :
b111000 ;
b101 H
b11110100001000101110 K
0M
0O
1X
b100 Z
b0 \
0^
0_
bx c
b0 f
b0 l
b0 o
1u
b10000 v
1x
b0 y
b110100 {
b111111 |
#180000
05
0X
0u
0x
#185000
1#
b110100 $
1%
b111111 &
bx ,
15
b0 7
b111111 9
bx ;
b11110100001000101101 K
1M
b110100 N
1O
b111111 P
1X
b100 Z
b0 \
0^
0_
bx c
bx f
b0 l
b0 o
1u
bx v
1x
b0 y
#190000
05
0X
0u
0x
#195000
1!
1"
15
b1111 7
b10100 :
b11110100001000101100 K
1X
b100 Z
b0 \
1^
0_
b10100 c
b0 l
b0 o
1u
bx v
1x
b0 y
#200000
05
0X
0u
0x
#205000
0!
0"
0#
0%
b0xxxxxx ,
15
b0 7
bx :
b111111 ;
b110 H
b11110100001000101011 K
0M
0O
1X
b100 Z
b0 \
0^
0_
bx c
b0 f
b0 l
b0 o
1u
b10100 v
1x
b0 y
b111000 {
b111000 |
#210000
05
0X
0u
0x
#215000
1#
b111000 $
1%
b111000 &
bx ,
15
b0 7
b111000 9
bx ;
b11110100001000101010 K
1M
b111000 N
1O
b111000 P
1X
b100 Z
b0 \
0^
0_
bx c
bx f
b0 l
b0 o
1u
bx v
1x
b0 y
#220000
05
0X
0u
0x
#225000
1!
1"
15
b1111 7
b11000 :
b11110100001000101001 K
1X
b100 Z
b0 \
1^
0_
b11000 c
b0 l
b0 o
1u
bx v
1x
b0 y
#230000
05
0X
0u
0x
#235000
0!
0"
0#
0%
b0xxx000 ,
15
b0 7
bx :
b111000 ;
b111 H
b11110100001000101000 K
0M
0O
1X
b100 Z
b0 \
0^
0_
bx c
b0 f
b0 l
b0 o
1u
b11000 v
1x
b0 y
b111100 {
b10111 |
#240000
05
0X
0u
0x
#245000
1#
b111100 $
1%
b10111 &
bx ,
15
b0 7
b10111 9
bx ;
b11110100001000100111 K
1M
b111100 N
1O
b10111 P
1X
b100 Z
b0 \
0^
0_
bx c
bx f
b0 l
b0 o
1u
bx v
1x
b0 y
#250000
05
0X
0u
0x
#255000
1!
1"
15
b1111 7
b11100 :
b11110100001000100110 K
1X
b100 Z
b0 \
1^
0_
b11100 c
b0 l
b0 o
1u
bx v
1x
b0 y
#260000
05
0X
0u
0x
#265000
0!
0"
0#
0%
b0x0xxx ,
15
b0 7
bx :
b10111 ;
b1000 H
b11110100001000100101 K
0M
0O
1X
b100 Z
b0 \
0^
0_
bx c
b0 f
b0 l
b0 o
1u
b11100 v
1x
b0 y
b1000000 {
b11111111111111111111111111110111 |
#270000
05
0X
0u
0x
#275000
1#
b1000000 $
1%
b11111111111111111111111111110111 &
bx ,
15
b0 7
b11111111111111111111111111110111 9
bx ;
b11110100001000100100 K
1M
b1000000 N
1O
b11111111111111111111111111110111 P
1X
b100 Z
b0 \
0^
0_
bx c
bx f
b0 l
b0 o
1u
bx v
1x
b0 y
#280000
05
0X
0u
0x
#285000
1!
1"
15
b1111 7
b100000 :
b11110100001000100011 K
1X
b100 Z
b0 \
1^
0_
b100000 c
b0 l
b0 o
1u
bx v
1x
b0 y
#290000
05
0X
0u
0x
#295000
0!
0"
0#
0%
bx0xxx ,
15
b0 7
bx :
b11111111111111111111111111110111 ;
b1001 H
b11110100001000100010 K
0M
0O
1X
b100 Z
b0 \
0^
0_
bx c
b0 f
b0 l
b0 o
1u
b100000 v
1x
b0 y
b1000100 {
b11111111111111111111111111110110 |
#300000
05
0X
0u
0x
#305000
1#
b1000100 $
1%
b11111111111111111111111111110110 &
bx ,
15
b0 7
b11111111111111111111111111110110 9
bx ;
b11110100001000100001 K
1M
b1000100 N
1O
b11111111111111111111111111110110 P
1X
b100 Z
b0 \
0^
0_
bx c
bx f
b0 l
b0 o
1u
bx v
1x
b0 y
#310000
05
0X
0u
0x
#315000
1!
1"
15
b1111 7
b100100 :
b11110100001000100000 K
1X
b100 Z
b0 \
1^
0_
b100100 c
b0 l
b0 o
1u
bx v
1x
b0 y
#320000
05
0X
0u
0x
#325000
0!
0"
0#
0%
bx0xx0 ,
15
b0 7
bx :
b11111111111111111111111111110110 ;
b1010 H
b11110100001000011111 K
0M
0O
1X
b100 Z
b0 \
0^
0_
bx c
b0 f
b0 l
b0 o
1u
b100100 v
1x
b0 y
b1001000 {
b0 |
#330000
05
0X
0u
0x
#335000
1#
b1001000 $
1%
b0 &
bx ,
15
b0 7
b0 9
bx ;
b11110100001000011110 K
1M
b1001000 N
1O
b0 P
1X
b100 Z
b0 \
0^
0_
bx c
bx f
b0 l
b0 o
1u
bx v
1x
b0 y
#340000
05
0X
0u
0x
#345000
1!
1"
15
b1111 7
b101000 :
b11110100001000011101 K
1X
b100 Z
b0 \
1^
0_
b101000 c
b0 l
b0 o
1u
bx v
1x
b0 y
#350000
05
0X
0u
0x
#355000
0!
b11111111111111111111111111111111 !!
0"
0#
0%
0)
b0 ,
15
b0 7
bx :
b0 ;
b0 H
b11110100001000011100 K
0M
0O
0R
1X
b100 Z
b0 \
0^
0_
bx c
b0 f
b0 l
b0 o
1u
b101000 v
1x
b0 y
b100000 }
b0 ~
#360000
05
0X
0u
0x
#365000
1(
1)
b100000 *
bx ,
15
b0 :
bx ;
b11110100001000011011 K
1Q
1R
b100000 S
1X
b100 Z
b0 \
0^
0_
b0 c
bx f
b0 l
b0 o
1u
bx v
1x
b0 y
#370000
05
0X
0u
0x
#375000
0'
1+
b0 ,
15
b0 ;
b11110100001000011010 K
1X
b100 Z
b0 \
0^
1_
b0 f
b0 l
b0 o
1u
b0 v
1x
b0 y
#380000
05
0X
0u
0x
#385000
b11111111111111111111111111111111 !!
1'
0)
0+
15
b1 H
b11110100001000011001 K
0R
1X
b100 Z
b0 \
0^
0_
b0 l
b0 o
1u
b0 v
1x
b0 y
b100100 }
b11111111111111111111111111110110 ~
#390000
05
0X
0u
0x
#395000
1(
1)
b100100 *
b0 ,
15
b100 :
b11110100001000011000 K
1R
b100100 S
1X
b100 Z
b0 \
0^
0_
b100 c
b0 l
b0 o
1u
b0 v
1x
b0 y
#400000
05
0X
0u
0x
#405000
0'
1+
b11111111111111111111111111110110 ,
15
b11111111111111111111111111110110 ;
b11110100001000010111 K
1X
b100 Z
b0 \
0^
1_
b0 f
b0 l
b0 o
1u
b100 v
1x
b0 y
#410000
05
0X
0u
0x
#415000
b11111111111111111111111111111111 !!
1'
0)
0+
15
b10 H
b11110100001000010110 K
0R
1X
b100 Z
b0 \
0^
0_
b0 l
b0 o
1u
b100 v
1x
b0 y
b101000 }
b11111111111111111111111111110111 ~
#420000
05
0X
0u
0x
#425000
1(
1)
b101000 *
b11111111111111111111111111110110 ,
15
b1000 :
b11110100001000010101 K
1R
b101000 S
1X
b100 Z
b0 \
0^
0_
b1000 c
b0 l
b0 o
1u
b100 v
1x
b0 y
#430000
05
0X
0u
0x
#435000
0'
1+
b11111111111111111111111111110111 ,
15
b11111111111111111111111111110111 ;
b11110100001000010100 K
1X
b100 Z
b0 \
0^
1_
b0 f
b0 l
b0 o
1u
b1000 v
1x
b0 y
#440000
05
0X
0u
0x
#445000
b11111111111111111111111111111111 !!
1'
0)
0+
15
b11 H
b11110100001000010011 K
0R
1X
b100 Z
b0 \
0^
0_
b0 l
b0 o
1u
b1000 v
1x
b0 y
b101100 }
b10111 ~
#450000
05
0X
0u
0x
#455000
1(
1)
b101100 *
b11111111111111111111111111110111 ,
15
b1100 :
b11110100001000010010 K
1R
b101100 S
1X
b100 Z
b0 \
0^
0_
b1100 c
b0 l
b0 o
1u
b1000 v
1x
b0 y
#460000
05
0X
0u
0x
#465000
0'
1+
b10111 ,
15
b10111 ;
b11110100001000010001 K
1X
b100 Z
b0 \
0^
1_
b0 f
b0 l
b0 o
1u
b1100 v
1x
b0 y
#470000
05
0X
0u
0x
#475000
b11111111111111111111111111111111 !!
1'
0)
0+
15
b100 H
b11110100001000010000 K
0R
1X
b100 Z
b0 \
0^
0_
b0 l
b0 o
1u
b1100 v
1x
b0 y
b110000 }
b111000 ~
#480000
05
0X
0u
0x
#485000
1(
1)
b110000 *
b10111 ,
15
b10000 :
b11110100001000001111 K
1R
b110000 S
1X
b100 Z
b0 \
0^
0_
b10000 c
b0 l
b0 o
1u
b1100 v
1x
b0 y
#490000
05
0X
0u
0x
#495000
0'
1+
b111000 ,
15
b111000 ;
b11110100001000001110 K
1X
b100 Z
b0 \
0^
1_
b0 f
b0 l
b0 o
1u
b10000 v
1x
b0 y
#500000
05
0X
0u
0x
#505000
b11111111111111111111111111111111 !!
1'
0)
0+
15
b101 H
b11110100001000001101 K
0R
1X
b100 Z
b0 \
0^
0_
b0 l
b0 o
1u
b10000 v
1x
b0 y
b110100 }
b111111 ~
#510000
05
0X
0u
0x
#515000
1(
1)
b110100 *
b111000 ,
15
b10100 :
b11110100001000001100 K
1R
b110100 S
1X
b100 Z
b0 \
0^
0_
b10100 c
b0 l
b0 o
1u
b10000 v
1x
b0 y
#520000
05
0X
0u
0x
#525000
0'
1+
b111111 ,
15
b111111 ;
b11110100001000001011 K
1X
b100 Z
b0 \
0^
1_
b0 f
b0 l
b0 o
1u
b10100 v
1x
b0 y
#530000
05
0X
0u
0x
#535000
b11111111111111111111111111111111 !!
1'
0)
0+
15
b110 H
b11110100001000001010 K
0R
1X
b100 Z
b0 \
0^
0_
b0 l
b0 o
1u
b10100 v
1x
b0 y
b111000 }
b111000 ~
#540000
05
0X
0u
0x
#545000
1(
1)
b111000 *
b111111 ,
15
b11000 :
b11110100001000001001 K
1R
b111000 S
1X
b100 Z
b0 \
0^
0_
b11000 c
b0 l
b0 o
1u
b10100 v
1x
b0 y
#550000
05
0X
0u
0x
#555000
0'
1+
b111000 ,
15
b111000 ;
b11110100001000001000 K
1X
b100 Z
b0 \
0^
1_
b0 f
b0 l
b0 o
1u
b11000 v
1x
b0 y
#560000
05
0X
0u
0x
#565000
b11111111111111111111111111111111 !!
1'
0)
0+
15
b111 H
b11110100001000000111 K
0R
1X
b100 Z
b0 \
0^
0_
b0 l
b0 o
1u
b11000 v
1x
b0 y
b111100 }
b10111 ~
#570000
05
0X
0u
0x
#575000
1(
1)
b111100 *
b111000 ,
15
b11100 :
b11110100001000000110 K
1R
b111100 S
1X
b100 Z
b0 \
0^
0_
b11100 c
b0 l
b0 o
1u
b11000 v
1x
b0 y
#580000
05
0X
0u
0x
#585000
0'
1+
b10111 ,
15
b10111 ;
b11110100001000000101 K
1X
b100 Z
b0 \
0^
1_
b0 f
b0 l
b0 o
1u
b11100 v
1x
b0 y
#590000
05
0X
0u
0x
#595000
b11111111111111111111111111111111 !!
1'
0)
0+
15
b1000 H
b11110100001000000100 K
0R
1X
b100 Z
b0 \
0^
0_
b0 l
b0 o
1u
b11100 v
1x
b0 y
b1000000 }
b11111111111111111111111111110111 ~
#600000
05
0X
0u
0x
#605000
1(
1)
b1000000 *
b10111 ,
15
b100000 :
b11110100001000000011 K
1R
b1000000 S
1X
b100 Z
b0 \
0^
0_
b100000 c
b0 l
b0 o
1u
b11100 v
1x
b0 y
#610000
05
0X
0u
0x
#615000
0'
1+
b11111111111111111111111111110111 ,
15
b11111111111111111111111111110111 ;
b11110100001000000010 K
1X
b100 Z
b0 \
0^
1_
b0 f
b0 l
b0 o
1u
b100000 v
1x
b0 y
#620000
05
0X
0u
0x
#625000
b11111111111111111111111111111111 !!
1'
0)
0+
15
b1001 H
b11110100001000000001 K
0R
1X
b100 Z
b0 \
0^
0_
b0 l
b0 o
1u
b100000 v
1x
b0 y
b1000100 }
b11111111111111111111111111110110 ~
#630000
05
0X
0u
0x
#635000
1(
1)
b1000100 *
b11111111111111111111111111110111 ,
15
b100100 :
b11110100001000000000 K
1R
b1000100 S
1X
b100 Z
b0 \
0^
0_
b100100 c
b0 l
b0 o
1u
b100000 v
1x
b0 y
#640000
05
0X
0u
0x
#645000
0'
1+
b11111111111111111111111111110110 ,
15
b11111111111111111111111111110110 ;
b11110100000111111111 K
1X
b100 Z
b0 \
0^
1_
b0 f
b0 l
b0 o
1u
b100100 v
1x
b0 y
#650000
05
0X
0u
0x
#655000
b11111111111111111111111111111111 !!
1'
0)
0+
15
b1010 H
b11110100000111111110 K
0R
1X
b100 Z
b0 \
0^
0_
b0 l
b0 o
1u
b100100 v
1x
b0 y
b1001000 }
b0 ~
#660000
05
0X
0u
0x
#665000
1(
1)
b1001000 *
b11111111111111111111111111110110 ,
15
b101000 :
b11110100000111111101 K
1R
b1001000 S
1X
b100 Z
b0 \
0^
0_
b101000 c
b0 l
b0 o
1u
b100100 v
1x
b0 y
#670000
05
0X
0u
0x
#675000
0'
1+
b0 ,
15
b0 ;
b11110100000111111100 K
1X
b100 Z
b0 \
0^
1_
b0 f
b0 l
b0 o
1u
b101000 v
1x
b0 y
#680000
05
0X
0u
0x
#685000
1'
0)
0+
15
b1011 H
b11110100000111111011 K
0R
1X
b100 Z
b0 \
0^
0_
b0 l
b0 o
1u
b101000 v
1x
b0 y
#690000
05
0X
0u
0x
#695000
0#
0%
15
b11110100000111111010 K
1X
b100 Z
b0 \
0^
0_
b0 l
b0 o
1u
b101000 v
1x
b0 y
b0 {
b1 |
#700000
05
0X
0u
0x
#705000
1#
b0 $
1%
b1 &
15
b0 7
b1 9
b11110100000111111001 K
1M
b0 N
1O
b1 P
1X
b100 Z
b0 \
0^
0_
b101000 c
b0 l
b0 o
1u
b101000 v
1x
b0 y
#710000
05
0X
0u
0x
#715000
1!
1"
15
b0 7
b111111100000 :
b11110100000111111000 K
1X
b100 Z
b0 \
1^
0_
b11111111111111111111111111100000 c
b0 l
b0 o
1u
b101000 v
1x
b0 y
#720000
05
0X
0u
0x
#725000
0!
0"
bx ,
15
b0 7
b101000 :
bx ;
b11110100000111110111 K
1X
b101 Z
b0 \
b1 ]
0^
0_
1`
b101000 c
bx f
b0 l
b0 o
1u
b111111100000 v
1x
b0 y
#730000
05
0X
0u
0x
#735000
1!
1"
b0 ,
10
15
b0 7
b0 :
b0 ;
b0 <
b101000 ?
b11110100000111110110 K
1X
b1 Z
b1 \
b1 ]
1^
0_
0a
b0 c
b101000 d
b101000 e
b0 f
b0 l
b0 o
1u
b101000 v
1x
b0 y
#740000
05
0X
0u
0x
#745000
0!
0"
b10 "!
1-
b10 .
00
02
15
b0 7
b100 :
b0 ;
b0 <
b1 >
b100100 ?
b0 @
b1 G
b11110100000111110101 K
b10 U
1X
b0 Z
b1 \
b1 ]
0^
0_
0`
b100 c
b100100 e
b0 f
b1 g
b0 l
b1 m
b1 o
1u
b0 v
1x
b101000 y
#750000
05
0X
0u
0x
#755000
1!
1"
b11111111111111111111111111110110 ,
00
02
15
b0 7
b1000 :
b11111111111111111111111111110110 ;
b0 <
b100000 ?
b0 @
b11110100000111110100 K
1X
b0 Z
b1 \
1^
0_
b1000 c
b100000 e
b0 f
b0 g
b0 h
b0 l
b10 o
1u
b100 v
1x
b100100 y
#760000
05
0X
0u
0x
#765000
0!
0"
b11111111111111111111111111110111 ,
00
02
15
b0 7
b1100 :
b11111111111111111111111111110111 ;
b0 <
b11100 ?
b0 @
b11110100000111110011 K
1X
b0 Z
b1 \
0^
0_
b1100 c
b11100 e
b0 f
b0 g
b0 h
b0 l
b11 o
1u
b1000 v
1x
b100000 y
#770000
05
0X
0u
0x
#775000
1!
1"
b10111 ,
00
02
15
b0 7
b10000 :
b10111 ;
b0 <
b11000 ?
b0 @
b11110100000111110010 K
1X
b0 Z
b1 \
1^
0_
b10000 c
b11000 e
b0 f
b0 g
b0 h
b0 l
b100 o
1u
b1100 v
1x
b11100 y
#780000
05
0X
0u
0x
#785000
0!
0"
b111000 ,
00
02
15
b0 7
b10100 :
b111000 ;
b0 <
b10100 ?
b0 @
b11110100000111110001 K
1X
b0 Z
b1 \
0^
0_
b10100 c
b10100 e
b0 f
b0 g
b0 h
b0 l
b101 o
1u
b10000 v
1x
b11000 y
#790000
05
0X
0u
0x
#795000
1!
1"
b111111 ,
00
02
15
b0 7
b11000 :
b111111 ;
b0 <
b10000 ?
b0 @
b11110100000111110000 K
1X
b0 Z
b1 \
1^
0_
b11000 c
b10000 e
b0 f
b0 g
b0 h
b0 l
b110 o
1u
b10100 v
1x
b10100 y
#800000
05
0X
0u
0x
#805000
0!
0"
b111000 ,
00
02
15
b0 7
b11100 :
b111000 ;
b0 <
b1100 ?
b0 @
b11110100000111101111 K
1X
b0 Z
b1 \
0^
0_
b11100 c
b1100 e
b0 f
b0 g
b0 h
b0 l
b111 o
1u
b11000 v
1x
b10000 y
#810000
05
0X
0u
0x
#815000
1!
1"
b10111 ,
00
02
15
b0 7
b100000 :
b10111 ;
b0 <
b1000 ?
b0 @
b11110100000111101110 K
1X
b0 Z
b1 \
1^
0_
b100000 c
b1000 e
b0 f
b0 g
b0 h
b0 l
b1000 o
1u
b11100 v
1x
b1100 y
#820000
05
0X
0u
0x
#825000
0!
0"
b11111111111111111111111111110111 ,
00
02
15
b0 7
b100100 :
b11111111111111111111111111110111 ;
b0 <
b100 ?
b0 @
b11110100000111101101 K
1X
b0 Z
b1 \
0^
0_
b100100 c
b100 e
b0 f
b0 g
b0 h
b0 l
b1001 o
1u
b100000 v
1x
b1000 y
#830000
05
0X
0u
0x
#835000
1!
1"
b11111111111111111111111111110110 ,
00
02
15
b0 7
b101000 :
b11111111111111111111111111110110 ;
b0 <
b0 ?
b0 @
b11110100000111101100 K
1X
b0 Z
b1 \
1^
0_
b101000 c
b0 e
b0 f
b0 g
b0 h
b0 l
b1010 o
1u
b100100 v
1x
b100 y
#840000
05
0X
0u
0x
#845000
0!
0"
b0 ,
00
02
15
b0 7
b101100 :
b0 ;
b1111 <
b101000 ?
b0 @
b11110100000111101011 K
1X
b0 Z
b1 \
0^
0_
b101100 c
b101000 e
b0 f
b0 g
b0 h
b0 l
b1011 o
1u
b101000 v
1x
b0 y
#850000
05
0X
0u
0x
#855000
1!
1"
b0 #!
b0 $!
bx ,
00
11
12
15
b0 7
b110000 :
bx ;
b0 <
b100100 ?
b1 @
b0 H
b11110100000111101010 K
1X
b0 Z
b1 \
1^
0_
b110000 c
b0 d
b100100 e
bx f
b1 g
b0 h
b0 l
b1100 o
0p
1u
b101100 v
1x
b101000 y
#860000
05
0X
0u
0x
#865000
0!
0"
10
02
15
b0 7
b0 :
bx ;
b0 <
b0 ?
b0 @
b11110100000111101001 K
1X
b0 Z
b1 \
0^
0_
b0 c
b0 e
bx f
b0 g
b0 h
b0 l
b1 n
b0 o
0p
1u
b110000 v
1x
b100100 y
#870000
05
0X
0u
0x
